{
  "variables": {
    "aws_access_key":    "",
    "aws_secret_key":    "",
    "aws_vpc_id":        "vpc-04e6d5de63ff95c58",
    "aws_subnet_id":     "subnet-03ed5d62e9b58e112",
    "region":            "us-east-1",
    "source_ami":        "ami-0938f2289b3fa3f5b",
    "owner":             "",
    "environment":       "",
    "aws_instance_type": "t2.micro",
    "ssh_username":      "ec2-user"
  },
  "builders": [
    {
      "access_key":    "{{user `aws_access_key`}}", 
      "secret_key":    "{{user `aws_secret_key`}}",
      "name":          "packer-ami",
      "type":          "amazon-ebs",
      "region":        "{{user `region`}}",
      "source_ami":    "{{user `source_ami`}}",
      "vpc_id":        "{{user `aws_vpc_id`}}",
      "instance_type": "{{user `aws_instance_type`}}",
      "subnet_id":     "{{user `aws_subnet_id`}}",
      "ssh_username":  "{{user `ssh_username`}}",
      "ami_name":      "hami-access-{{user `owner`}}-{{user `environment`}}-{{timestamp}}",
      "ami_regions":   "{{user `aws_region`}}",
      "security_group_id": "{{user `aws_security_group_id`}}"
    }
  ],
  "provisioners": [
    {
      "type": "ansible",
      "playbook_file": "./playbook.yml"
    }
  ]
}